simulation/qsim/plottermachine.msim.vcd
$comment
	File created using the following command:
		vcd file plottermachine.msim.vcd -direction
$end
$date
	Sat Nov 23 12:21:47 2019
$end
$version
	ModelSim Version 10.5b
$end
$timescale
	1ps
$end

$scope module stepper_controller_vlg_vec_tst $end
$var reg 1 ! clk $end
$var reg 1 " enable $end
$var reg 16 # inverse_speed [15:0] $end
$var wire 1 $ step_clk $end

$scope module i1 $end
$var wire 1 % gnd $end
$var wire 1 & vcc $end
$var wire 1 ' unknown $end
$var tri1 1 ( devclrn $end
$var tri1 1 ) devpor $end
$var tri1 1 * devoe $end
$var wire 1 + enable~input_o $end
$var wire 1 , step_clk~output_o $end
$var wire 1 - clk~input_o $end
$var wire 1 . clk~inputclkctrl_outclk $end
$var wire 1 / step_counter[0]~32_combout $end
$var wire 1 0 step_counter[0]~33 $end
$var wire 1 1 step_counter[1]~34_combout $end
$var wire 1 2 step_counter[1]~35 $end
$var wire 1 3 step_counter[2]~36_combout $end
$var wire 1 4 step_counter[2]~37 $end
$var wire 1 5 step_counter[3]~38_combout $end
$var wire 1 6 step_counter[3]~39 $end
$var wire 1 7 step_counter[4]~40_combout $end
$var wire 1 8 step_counter[4]~41 $end
$var wire 1 9 step_counter[5]~42_combout $end
$var wire 1 : step_counter[5]~43 $end
$var wire 1 ; step_counter[6]~44_combout $end
$var wire 1 < step_counter[6]~45 $end
$var wire 1 = step_counter[7]~46_combout $end
$var wire 1 > step_counter[7]~47 $end
$var wire 1 ? step_counter[8]~48_combout $end
$var wire 1 @ step_counter[8]~49 $end
$var wire 1 A step_counter[9]~50_combout $end
$var wire 1 B step_counter[9]~51 $end
$var wire 1 C step_counter[10]~52_combout $end
$var wire 1 D step_counter[10]~53 $end
$var wire 1 E step_counter[11]~54_combout $end
$var wire 1 F step_counter[11]~55 $end
$var wire 1 G step_counter[12]~56_combout $end
$var wire 1 H step_counter[12]~57 $end
$var wire 1 I step_counter[13]~58_combout $end
$var wire 1 J step_counter[13]~59 $end
$var wire 1 K step_counter[14]~60_combout $end
$var wire 1 L step_counter[14]~61 $end
$var wire 1 M step_counter[15]~62_combout $end
$var wire 1 N step_counter[15]~63 $end
$var wire 1 O step_counter[16]~64_combout $end
$var wire 1 P step_counter[16]~65 $end
$var wire 1 Q step_counter[17]~66_combout $end
$var wire 1 R step_counter[17]~67 $end
$var wire 1 S step_counter[18]~68_combout $end
$var wire 1 T step_counter[18]~69 $end
$var wire 1 U step_counter[19]~70_combout $end
$var wire 1 V step_counter[19]~71 $end
$var wire 1 W step_counter[20]~72_combout $end
$var wire 1 X step_counter[20]~73 $end
$var wire 1 Y step_counter[21]~74_combout $end
$var wire 1 Z step_counter[21]~75 $end
$var wire 1 [ step_counter[22]~76_combout $end
$var wire 1 \ step_counter[22]~77 $end
$var wire 1 ] step_counter[23]~78_combout $end
$var wire 1 ^ step_counter[23]~79 $end
$var wire 1 _ step_counter[24]~80_combout $end
$var wire 1 ` step_counter[24]~81 $end
$var wire 1 a step_counter[25]~82_combout $end
$var wire 1 b step_counter[25]~83 $end
$var wire 1 c step_counter[26]~84_combout $end
$var wire 1 d step_counter[26]~85 $end
$var wire 1 e step_counter[27]~86_combout $end
$var wire 1 f step_counter[27]~87 $end
$var wire 1 g step_counter[28]~88_combout $end
$var wire 1 h step_counter[28]~89 $end
$var wire 1 i step_counter[29]~90_combout $end
$var wire 1 j step_counter[29]~91 $end
$var wire 1 k step_counter[30]~92_combout $end
$var wire 1 l step_counter[30]~93 $end
$var wire 1 m step_counter[31]~94_combout $end
$var wire 1 n inverse_speed[12]~input_o $end
$var wire 1 o inverse_speed[13]~input_o $end
$var wire 1 p inverse_speed[14]~input_o $end
$var wire 1 q inverse_speed[15]~input_o $end
$var wire 1 r Mult0|mult_core|romout[3][19]~0_combout $end
$var wire 1 s Mult0|mult_core|romout[3][18]~1_combout $end
$var wire 1 t Mult0|mult_core|romout[3][17]~2_combout $end
$var wire 1 u inverse_speed[9]~input_o $end
$var wire 1 v inverse_speed[11]~input_o $end
$var wire 1 w inverse_speed[10]~input_o $end
$var wire 1 x inverse_speed[8]~input_o $end
$var wire 1 y Mult0|mult_core|romout[2][20]~4_combout $end
$var wire 1 z Mult0|mult_core|romout[3][16]~3_combout $end
$var wire 1 { Mult0|mult_core|romout[2][19]~6_combout $end
$var wire 1 | Mult0|mult_core|romout[3][15]~5_combout $end
$var wire 1 } Mult0|mult_core|romout[3][14]~7_combout $end
$var wire 1 ~ Mult0|mult_core|romout[2][18]~8_combout $end
$var wire 1 !! Mult0|mult_core|romout[3][13]~9_combout $end
$var wire 1 "! Mult0|mult_core|romout[2][17]~10_combout $end
$var wire 1 #! Mult0|mult_core|romout[2][16]~11_combout $end
$var wire 1 $! Mult0|mult_core|romout[2][15]~12_combout $end
$var wire 1 %! Mult0|mult_core|_~0_combout $end
$var wire 1 &! Mult0|mult_core|romout[2][14]~13_combout $end
$var wire 1 '! Mult0|mult_core|romout[3][9]~14_combout $end
$var wire 1 (! Mult0|mult_core|romout[2][13]~15_combout $end
$var wire 1 )! Mult0|mult_core|romout[3][8]~16_combout $end
$var wire 1 *! Mult0|mult_core|romout[3][7]~17_combout $end
$var wire 1 +! Mult0|mult_core|romout[3][6]~18_combout $end
$var wire 1 ,! Mult0|mult_core|_~1_combout $end
$var wire 1 -! Mult0|mult_core|romout[2][9]~19_combout $end
$var wire 1 .! Mult0|mult_core|romout[2][8]~20_combout $end
$var wire 1 /! Mult0|mult_core|romout[2][7]~21_combout $end
$var wire 1 0! Mult0|mult_core|padder|adder[1]|auto_generated|op_1~1 $end
$var wire 1 1! Mult0|mult_core|padder|adder[1]|auto_generated|op_1~3 $end
$var wire 1 2! Mult0|mult_core|padder|adder[1]|auto_generated|op_1~5 $end
$var wire 1 3! Mult0|mult_core|padder|adder[1]|auto_generated|op_1~7 $end
$var wire 1 4! Mult0|mult_core|padder|adder[1]|auto_generated|op_1~9 $end
$var wire 1 5! Mult0|mult_core|padder|adder[1]|auto_generated|op_1~11 $end
$var wire 1 6! Mult0|mult_core|padder|adder[1]|auto_generated|op_1~13 $end
$var wire 1 7! Mult0|mult_core|padder|adder[1]|auto_generated|op_1~15 $end
$var wire 1 8! Mult0|mult_core|padder|adder[1]|auto_generated|op_1~17 $end
$var wire 1 9! Mult0|mult_core|padder|adder[1]|auto_generated|op_1~19 $end
$var wire 1 :! Mult0|mult_core|padder|adder[1]|auto_generated|op_1~21 $end
$var wire 1 ;! Mult0|mult_core|padder|adder[1]|auto_generated|op_1~23 $end
$var wire 1 <! Mult0|mult_core|padder|adder[1]|auto_generated|op_1~25 $end
$var wire 1 =! Mult0|mult_core|padder|adder[1]|auto_generated|op_1~27 $end
$var wire 1 >! Mult0|mult_core|padder|adder[1]|auto_generated|op_1~29 $end
$var wire 1 ?! Mult0|mult_core|padder|adder[1]|auto_generated|op_1~31 $end
$var wire 1 @! Mult0|mult_core|padder|adder[1]|auto_generated|op_1~32_combout $end
$var wire 1 A! Mult0|mult_core|padder|adder[1]|auto_generated|op_1~30_combout $end
$var wire 1 B! Mult0|mult_core|padder|adder[1]|auto_generated|op_1~28_combout $end
$var wire 1 C! Mult0|mult_core|padder|adder[1]|auto_generated|op_1~26_combout $end
$var wire 1 D! Mult0|mult_core|padder|adder[1]|auto_generated|op_1~24_combout $end
$var wire 1 E! Mult0|mult_core|padder|adder[1]|auto_generated|op_1~22_combout $end
$var wire 1 F! Mult0|mult_core|padder|adder[1]|auto_generated|op_1~20_combout $end
$var wire 1 G! inverse_speed[6]~input_o $end
$var wire 1 H! inverse_speed[4]~input_o $end
$var wire 1 I! inverse_speed[7]~input_o $end
$var wire 1 J! inverse_speed[5]~input_o $end
$var wire 1 K! Mult0|mult_core|romout[1][20]~22_combout $end
$var wire 1 L! Mult0|mult_core|romout[1][19]~23_combout $end
$var wire 1 M! Mult0|mult_core|romout[1][18]~24_combout $end
$var wire 1 N! Mult0|mult_core|romout[1][17]~25_combout $end
$var wire 1 O! Mult0|mult_core|romout[1][16]~26_combout $end
$var wire 1 P! inverse_speed[1]~input_o $end
$var wire 1 Q! inverse_speed[3]~input_o $end
$var wire 1 R! inverse_speed[0]~input_o $end
$var wire 1 S! inverse_speed[2]~input_o $end
$var wire 1 T! Mult0|mult_core|romout[0][20]~27_combout $end
$var wire 1 U! Mult0|mult_core|romout[0][19]~29_combout $end
$var wire 1 V! Mult0|mult_core|romout[1][15]~28_combout $end
$var wire 1 W! Mult0|mult_core|romout[1][14]~30_combout $end
$var wire 1 X! Mult0|mult_core|romout[0][18]~combout $end
$var wire 1 Y! Mult0|mult_core|romout[1][13]~31_combout $end
$var wire 1 Z! Mult0|mult_core|romout[0][17]~32_combout $end
$var wire 1 [! Mult0|mult_core|romout[0][16]~33_combout $end
$var wire 1 \! Mult0|mult_core|romout[0][15]~34_combout $end
$var wire 1 ]! Mult0|mult_core|_~2_combout $end
$var wire 1 ^! Mult0|mult_core|romout[0][14]~35_combout $end
$var wire 1 _! Mult0|mult_core|romout[0][13]~37_combout $end
$var wire 1 `! Mult0|mult_core|romout[1][9]~36_combout $end
$var wire 1 a! Mult0|mult_core|romout[1][8]~38_combout $end
$var wire 1 b! Mult0|mult_core|romout[1][7]~39_combout $end
$var wire 1 c! Mult0|mult_core|romout[1][6]~40_combout $end
$var wire 1 d! Mult0|mult_core|_~3_combout $end
$var wire 1 e! Mult0|mult_core|romout[0][9]~41_combout $end
$var wire 1 f! Mult0|mult_core|romout[0][8]~combout $end
$var wire 1 g! Mult0|mult_core|romout[0][7]~42_combout $end
$var wire 1 h! Mult0|mult_core|padder|adder[0]|auto_generated|op_1~1 $end
$var wire 1 i! Mult0|mult_core|padder|adder[0]|auto_generated|op_1~3 $end
$var wire 1 j! Mult0|mult_core|padder|adder[0]|auto_generated|op_1~5 $end
$var wire 1 k! Mult0|mult_core|padder|adder[0]|auto_generated|op_1~7 $end
$var wire 1 l! Mult0|mult_core|padder|adder[0]|auto_generated|op_1~9 $end
$var wire 1 m! Mult0|mult_core|padder|adder[0]|auto_generated|op_1~11 $end
$var wire 1 n! Mult0|mult_core|padder|adder[0]|auto_generated|op_1~13 $end
$var wire 1 o! Mult0|mult_core|padder|adder[0]|auto_generated|op_1~15 $end
$var wire 1 p! Mult0|mult_core|padder|adder[0]|auto_generated|op_1~17 $end
$var wire 1 q! Mult0|mult_core|padder|adder[0]|auto_generated|op_1~19 $end
$var wire 1 r! Mult0|mult_core|padder|adder[0]|auto_generated|op_1~21 $end
$var wire 1 s! Mult0|mult_core|padder|adder[0]|auto_generated|op_1~23 $end
$var wire 1 t! Mult0|mult_core|padder|adder[0]|auto_generated|op_1~25 $end
$var wire 1 u! Mult0|mult_core|padder|adder[0]|auto_generated|op_1~27 $end
$var wire 1 v! Mult0|mult_core|padder|adder[0]|auto_generated|op_1~29 $end
$var wire 1 w! Mult0|mult_core|padder|adder[0]|auto_generated|op_1~31 $end
$var wire 1 x! Mult0|mult_core|padder|adder[0]|auto_generated|op_1~33 $end
$var wire 1 y! Mult0|mult_core|padder|adder[0]|auto_generated|op_1~34_combout $end
$var wire 1 z! Mult0|mult_core|padder|adder[1]|auto_generated|op_1~18_combout $end
$var wire 1 {! Mult0|mult_core|padder|adder[1]|auto_generated|op_1~16_combout $end
$var wire 1 |! Mult0|mult_core|padder|adder[0]|auto_generated|op_1~32_combout $end
$var wire 1 }! Mult0|mult_core|padder|adder[0]|auto_generated|op_1~30_combout $end
$var wire 1 ~! Mult0|mult_core|padder|adder[1]|auto_generated|op_1~14_combout $end
$var wire 1 !" Mult0|mult_core|padder|adder[1]|auto_generated|op_1~12_combout $end
$var wire 1 "" Mult0|mult_core|padder|adder[0]|auto_generated|op_1~28_combout $end
$var wire 1 #" Mult0|mult_core|padder|adder[1]|auto_generated|op_1~10_combout $end
$var wire 1 $" Mult0|mult_core|padder|adder[0]|auto_generated|op_1~26_combout $end
$var wire 1 %" Mult0|mult_core|padder|adder[0]|auto_generated|op_1~24_combout $end
$var wire 1 &" Mult0|mult_core|padder|adder[1]|auto_generated|op_1~8_combout $end
$var wire 1 '" Mult0|mult_core|padder|adder[1]|auto_generated|op_1~6_combout $end
$var wire 1 (" Mult0|mult_core|padder|adder[0]|auto_generated|op_1~22_combout $end
$var wire 1 )" Mult0|mult_core|padder|adder[0]|auto_generated|op_1~20_combout $end
$var wire 1 *" Mult0|mult_core|padder|adder[1]|auto_generated|op_1~4_combout $end
$var wire 1 +" Mult0|mult_core|padder|adder[0]|auto_generated|op_1~18_combout $end
$var wire 1 ," Mult0|mult_core|padder|adder[1]|auto_generated|op_1~2_combout $end
$var wire 1 -" Mult0|mult_core|padder|adder[1]|auto_generated|op_1~0_combout $end
$var wire 1 ." Mult0|mult_core|padder|adder[0]|auto_generated|op_1~16_combout $end
$var wire 1 /" Mult0|mult_core|romout[2][6]~43_combout $end
$var wire 1 0" Mult0|mult_core|padder|adder[0]|auto_generated|op_1~14_combout $end
$var wire 1 1" Mult0|mult_core|padder|adder[0]|auto_generated|op_1~12_combout $end
$var wire 1 2" Mult0|mult_core|padder|adder[0]|auto_generated|op_1~10_combout $end
$var wire 1 3" Mult0|mult_core|padder|adder[0]|auto_generated|op_1~8_combout $end
$var wire 1 4" Mult0|mult_core|padder|sub_par_add|adder[0]|auto_generated|op_1~1 $end
$var wire 1 5" Mult0|mult_core|padder|sub_par_add|adder[0]|auto_generated|op_1~3 $end
$var wire 1 6" Mult0|mult_core|padder|sub_par_add|adder[0]|auto_generated|op_1~5 $end
$var wire 1 7" Mult0|mult_core|padder|sub_par_add|adder[0]|auto_generated|op_1~7 $end
$var wire 1 8" Mult0|mult_core|padder|sub_par_add|adder[0]|auto_generated|op_1~9 $end
$var wire 1 9" Mult0|mult_core|padder|sub_par_add|adder[0]|auto_generated|op_1~11 $end
$var wire 1 :" Mult0|mult_core|padder|sub_par_add|adder[0]|auto_generated|op_1~13 $end
$var wire 1 ;" Mult0|mult_core|padder|sub_par_add|adder[0]|auto_generated|op_1~15 $end
$var wire 1 <" Mult0|mult_core|padder|sub_par_add|adder[0]|auto_generated|op_1~17 $end
$var wire 1 =" Mult0|mult_core|padder|sub_par_add|adder[0]|auto_generated|op_1~19 $end
$var wire 1 >" Mult0|mult_core|padder|sub_par_add|adder[0]|auto_generated|op_1~21 $end
$var wire 1 ?" Mult0|mult_core|padder|sub_par_add|adder[0]|auto_generated|op_1~23 $end
$var wire 1 @" Mult0|mult_core|padder|sub_par_add|adder[0]|auto_generated|op_1~25 $end
$var wire 1 A" Mult0|mult_core|padder|sub_par_add|adder[0]|auto_generated|op_1~27 $end
$var wire 1 B" Mult0|mult_core|padder|sub_par_add|adder[0]|auto_generated|op_1~29 $end
$var wire 1 C" Mult0|mult_core|padder|sub_par_add|adder[0]|auto_generated|op_1~31 $end
$var wire 1 D" Mult0|mult_core|padder|sub_par_add|adder[0]|auto_generated|op_1~33 $end
$var wire 1 E" Mult0|mult_core|padder|sub_par_add|adder[0]|auto_generated|op_1~35 $end
$var wire 1 F" Mult0|mult_core|padder|sub_par_add|adder[0]|auto_generated|op_1~37 $end
$var wire 1 G" Mult0|mult_core|padder|sub_par_add|adder[0]|auto_generated|op_1~39 $end
$var wire 1 H" Mult0|mult_core|padder|sub_par_add|adder[0]|auto_generated|op_1~40_combout $end
$var wire 1 I" Mult0|mult_core|padder|sub_par_add|adder[0]|auto_generated|op_1~38_combout $end
$var wire 1 J" Mult0|mult_core|padder|sub_par_add|adder[0]|auto_generated|op_1~36_combout $end
$var wire 1 K" Mult0|mult_core|padder|sub_par_add|adder[0]|auto_generated|op_1~34_combout $end
$var wire 1 L" Mult0|mult_core|padder|sub_par_add|adder[0]|auto_generated|op_1~32_combout $end
$var wire 1 M" Mult0|mult_core|padder|sub_par_add|adder[0]|auto_generated|op_1~30_combout $end
$var wire 1 N" Mult0|mult_core|padder|sub_par_add|adder[0]|auto_generated|op_1~28_combout $end
$var wire 1 O" Mult0|mult_core|padder|sub_par_add|adder[0]|auto_generated|op_1~26_combout $end
$var wire 1 P" Mult0|mult_core|padder|sub_par_add|adder[0]|auto_generated|op_1~24_combout $end
$var wire 1 Q" Mult0|mult_core|padder|sub_par_add|adder[0]|auto_generated|op_1~22_combout $end
$var wire 1 R" Mult0|mult_core|padder|sub_par_add|adder[0]|auto_generated|op_1~20_combout $end
$var wire 1 S" Mult0|mult_core|padder|sub_par_add|adder[0]|auto_generated|op_1~18_combout $end
$var wire 1 T" Mult0|mult_core|padder|sub_par_add|adder[0]|auto_generated|op_1~16_combout $end
$var wire 1 U" Mult0|mult_core|padder|sub_par_add|adder[0]|auto_generated|op_1~14_combout $end
$var wire 1 V" Mult0|mult_core|padder|sub_par_add|adder[0]|auto_generated|op_1~12_combout $end
$var wire 1 W" Mult0|mult_core|padder|sub_par_add|adder[0]|auto_generated|op_1~10_combout $end
$var wire 1 X" Mult0|mult_core|padder|sub_par_add|adder[0]|auto_generated|op_1~8_combout $end
$var wire 1 Y" Mult0|mult_core|padder|sub_par_add|adder[0]|auto_generated|op_1~6_combout $end
$var wire 1 Z" Mult0|mult_core|padder|sub_par_add|adder[0]|auto_generated|op_1~4_combout $end
$var wire 1 [" Mult0|mult_core|padder|sub_par_add|adder[0]|auto_generated|op_1~2_combout $end
$var wire 1 \" Mult0|mult_core|padder|sub_par_add|adder[0]|auto_generated|op_1~0_combout $end
$var wire 1 ]" Mult0|mult_core|padder|adder[0]|auto_generated|op_1~6_combout $end
$var wire 1 ^" Mult0|mult_core|padder|adder[0]|auto_generated|op_1~4_combout $end
$var wire 1 _" Mult0|mult_core|padder|adder[0]|auto_generated|op_1~2_combout $end
$var wire 1 `" Mult0|mult_core|padder|adder[0]|auto_generated|op_1~0_combout $end
$var wire 1 a" Mult0|mult_core|romout[0][6]~44_combout $end
$var wire 1 b" LessThan0~1_cout $end
$var wire 1 c" LessThan0~3_cout $end
$var wire 1 d" LessThan0~5_cout $end
$var wire 1 e" LessThan0~7_cout $end
$var wire 1 f" LessThan0~9_cout $end
$var wire 1 g" LessThan0~11_cout $end
$var wire 1 h" LessThan0~13_cout $end
$var wire 1 i" LessThan0~15_cout $end
$var wire 1 j" LessThan0~17_cout $end
$var wire 1 k" LessThan0~19_cout $end
$var wire 1 l" LessThan0~21_cout $end
$var wire 1 m" LessThan0~23_cout $end
$var wire 1 n" LessThan0~25_cout $end
$var wire 1 o" LessThan0~27_cout $end
$var wire 1 p" LessThan0~29_cout $end
$var wire 1 q" LessThan0~31_cout $end
$var wire 1 r" LessThan0~33_cout $end
$var wire 1 s" LessThan0~35_cout $end
$var wire 1 t" LessThan0~37_cout $end
$var wire 1 u" LessThan0~39_cout $end
$var wire 1 v" LessThan0~41_cout $end
$var wire 1 w" LessThan0~43_cout $end
$var wire 1 x" LessThan0~45_cout $end
$var wire 1 y" LessThan0~47_cout $end
$var wire 1 z" LessThan0~49_cout $end
$var wire 1 {" LessThan0~51_cout $end
$var wire 1 |" LessThan0~53_cout $end
$var wire 1 }" LessThan0~55_cout $end
$var wire 1 ~" LessThan0~56_combout $end
$var wire 1 !# step_clk~0_combout $end
$var wire 1 "# step_clk~reg0_q $end
$var wire 1 ## step_counter [31] $end
$var wire 1 $# step_counter [30] $end
$var wire 1 %# step_counter [29] $end
$var wire 1 &# step_counter [28] $end
$var wire 1 '# step_counter [27] $end
$var wire 1 (# step_counter [26] $end
$var wire 1 )# step_counter [25] $end
$var wire 1 *# step_counter [24] $end
$var wire 1 +# step_counter [23] $end
$var wire 1 ,# step_counter [22] $end
$var wire 1 -# step_counter [21] $end
$var wire 1 .# step_counter [20] $end
$var wire 1 /# step_counter [19] $end
$var wire 1 0# step_counter [18] $end
$var wire 1 1# step_counter [17] $end
$var wire 1 2# step_counter [16] $end
$var wire 1 3# step_counter [15] $end
$var wire 1 4# step_counter [14] $end
$var wire 1 5# step_counter [13] $end
$var wire 1 6# step_counter [12] $end
$var wire 1 7# step_counter [11] $end
$var wire 1 8# step_counter [10] $end
$var wire 1 9# step_counter [9] $end
$var wire 1 :# step_counter [8] $end
$var wire 1 ;# step_counter [7] $end
$var wire 1 <# step_counter [6] $end
$var wire 1 =# step_counter [5] $end
$var wire 1 ># step_counter [4] $end
$var wire 1 ?# step_counter [3] $end
$var wire 1 @# step_counter [2] $end
$var wire 1 A# step_counter [1] $end
$var wire 1 B# step_counter [0] $end
$upscope $end
$upscope $end
$enddefinitions $end
#0
$dumpvars
0!
1"
b1 #
0$
0%
1&
x'
1(
1)
1*
1+
0,
0-
0.
1/
00
01
12
03
04
05
16
07
08
09
1:
0;
0<
0=
1>
0?
0@
0A
1B
0C
0D
0E
1F
0G
0H
0I
1J
0K
0L
0M
1N
0O
0P
0Q
1R
0S
0T
0U
1V
0W
0X
0Y
1Z
0[
0\
0]
1^
0_
0`
0a
1b
0c
0d
0e
1f
0g
0h
0i
1j
0k
0l
0m
0n
0o
0p
0q
0r
0s
0t
0u
0v
0w
0x
0y
0z
0{
0|
0}
0~
0!!
0"!
0#!
0$!
0%!
0&!
0'!
0(!
0)!
0*!
0+!
0,!
0-!
0.!
0/!
00!
11!
02!
13!
04!
15!
06!
17!
08!
19!
0:!
1;!
0<!
1=!
0>!
1?!
0@!
0A!
0B!
0C!
0D!
0E!
0F!
0G!
0H!
0I!
0J!
0K!
0L!
0M!
0N!
0O!
0P!
0Q!
1R!
0S!
0T!
0U!
0V!
0W!
0X!
0Y!
0Z!
1[!
1\!
0]!
1^!
1_!
0`!
0a!
0b!
0c!
0d!
0e!
0f!
0g!
0h!
1i!
0j!
1k!
0l!
1m!
0n!
1o!
0p!
1q!
0r!
1s!
0t!
1u!
0v!
1w!
0x!
0y!
0z!
0{!
0|!
0}!
0~!
0!"
0""
0#"
0$"
0%"
0&"
0'"
0("
0)"
0*"
1+"
0,"
0-"
1."
0/"
10"
11"
02"
13"
04"
15"
06"
17"
08"
19"
0:"
1;"
0<"
1="
0>"
1?"
0@"
1A"
0B"
1C"
0D"
1E"
0F"
1G"
0H"
0I"
0J"
0K"
0L"
0M"
0N"
0O"
0P"
0Q"
0R"
0S"
0T"
0U"
0V"
1W"
1X"
1Y"
1Z"
0["
1\"
0]"
0^"
0_"
0`"
1a"
1b"
0c"
1d"
0e"
1f"
0g"
1h"
0i"
1j"
0k"
1l"
0m"
1n"
0o"
1p"
0q"
1r"
0s"
1t"
0u"
1v"
0w"
1x"
0y"
1z"
0{"
1|"
0}"
1~"
0!#
0"#
0B#
0A#
0@#
0?#
0>#
0=#
0<#
0;#
0:#
09#
08#
07#
06#
05#
04#
03#
02#
01#
00#
0/#
0.#
0-#
0,#
0+#
0*#
0)#
0(#
0'#
0&#
0%#
0$#
0##
$end
#10000
1!
1-
1.
1B#
10
0/
11
#20000
0!
0-
0.
#30000
1!
1-
1.
1A#
0B#
02
00
01
1/
12
13
11
03
#40000
0!
0-
0.
#50000
1!
1-
1.
1B#
10
0/
02
01
13
#60000
0!
0-
0.
#70000
1!
1-
1.
1@#
0A#
0B#
14
12
00
03
11
1/
15
04
13
01
05
#80000
0!
0-
0.
#90000
1!
1-
1.
1B#
10
0/
11
#100000
0!
0-
0.
#110000
1!
1-
1.
1A#
0B#
02
00
01
1/
14
12
03
11
15
04
13
05
#120000
0!
0-
0.
#130000
1!
1-
1.
1B#
10
0/
02
01
14
03
15
#140000
0!
0-
0.
#150000
1!
1-
1.
1?#
0@#
0A#
0B#
0b"
06
05
04
12
00
13
11
1/
1c"
17
16
15
03
01
0d"
07
#160000
0!
0-
0.
#170000
1!
1-
1.
1B#
10
0/
11
#180000
0!
0-
0.
#190000
1!
1-
1.
1A#
0B#
02
00
01
1/
12
13
11
03
#200000
0!
0-
0.
#210000
1!
1-
1.
1B#
10
0/
02
01
13
#220000
0!
0-
0.
#230000
1!
1-
1.
1@#
0A#
0B#
14
12
00
03
11
1/
06
05
04
13
01
17
16
15
07
#240000
0!
0-
0.
#250000
1!
1-
1.
1B#
10
0/
11
#260000
0!
0-
0.
#270000
1!
1-
1.
1A#
0B#
02
00
01
1/
14
12
03
11
06
05
04
13
17
16
15
07
#280000
0!
0-
0.
#290000
1!
1-
1.
1B#
10
0/
02
01
14
03
06
05
17
#300000
0!
0-
0.
#310000
1!
1-
1.
1>#
0?#
0@#
0A#
0B#
18
07
1b"
16
15
04
12
00
13
11
1/
19
08
17
05
03
01
09
#320000
0!
0-
0.
#330000
1!
1-
1.
1B#
10
0/
11
#340000
0!
0-
0.
#350000
1!
1-
1.
1A#
0B#
02
00
01
1/
12
13
11
03
#360000
0!
0-
0.
#370000
1!
1-
1.
1B#
10
0/
02
01
13
#380000
0!
0-
0.
#390000
1!
1-
1.
1@#
0A#
0B#
14
12
00
03
11
1/
15
04
13
01
05
#400000
0!
0-
0.
#410000
1!
1-
1.
1B#
10
0/
11
#420000
0!
0-
0.
#430000
1!
1-
1.
1A#
0B#
02
00
01
1/
14
12
03
11
15
04
13
05
#440000
0!
0-
0.
#450000
1!
1-
1.
1B#
10
0/
02
01
14
03
15
#460000
0!
0-
0.
#470000
1!
1-
1.
1?#
0@#
0A#
0B#
0b"
06
05
04
12
00
13
11
1/
18
07
16
15
03
01
19
08
17
09
#480000
0!
0-
0.
#490000
1!
1-
1.
1B#
10
0/
11
#500000
0!
0-
0.
#510000
1!
1-
1.
1A#
0B#
02
00
01
1/
12
13
11
03
#520000
0!
0-
0.
#530000
1!
1-
1.
1B#
10
0/
02
01
13
#540000
0!
0-
0.
#550000
1!
1-
1.
1@#
0A#
0B#
14
12
00
03
11
1/
06
05
04
13
01
18
07
16
15
19
08
17
09
#560000
0!
0-
0.
#570000
1!
1-
1.
1B#
10
0/
11
#580000
0!
0-
0.
#590000
1!
1-
1.
1A#
0B#
02
00
01
1/
14
12
03
11
06
05
04
13
18
07
16
15
19
08
17
09
#600000
0!
0-
0.
#610000
1!
1-
1.
1B#
10
0/
02
01
14
03
06
05
18
07
19
#620000
0!
0-
0.
#630000
1!
1-
1.
1=#
0>#
0?#
0@#
0A#
0B#
0:
09
08
17
1b"
16
15
04
12
00
13
11
1/
1;
1:
19
0c"
07
05
03
01
0;
#640000
0!
0-
0.
#650000
1!
1-
1.
1B#
10
0/
11
#660000
0!
0-
0.
#670000
1!
1-
1.
1A#
0B#
02
00
01
1/
12
13
11
03
#680000
0!
0-
0.
#690000
1!
1-
1.
1B#
10
0/
02
01
13
#700000
0!
0-
0.
#710000
1!
1-
1.
1@#
0A#
0B#
14
12
00
03
11
1/
15
04
13
01
05
#720000
0!
0-
0.
#730000
1!
1-
1.
1B#
10
0/
11
#740000
0!
0-
0.
#750000
1!
1-
1.
1A#
0B#
02
00
01
1/
14
12
03
11
15
04
13
05
#760000
0!
0-
0.
#770000
1!
1-
1.
1B#
10
0/
02
01
14
03
15
#780000
0!
0-
0.
#790000
1!
1-
1.
1?#
0@#
0A#
0B#
0b"
06
05
04
12
00
13
11
1/
1c"
17
16
15
03
01
07
#800000
0!
0-
0.
#810000
1!
1-
1.
1B#
10
0/
11
#820000
0!
0-
0.
#830000
1!
1-
1.
1A#
0B#
02
00
01
1/
12
13
11
03
#840000
0!
0-
0.
#850000
1!
1-
1.
1B#
10
0/
02
01
13
#860000
0!
0-
0.
#870000
1!
1-
1.
1@#
0A#
0B#
14
12
00
03
11
1/
06
05
04
13
01
17
16
15
07
#880000
0!
0-
0.
#890000
1!
1-
1.
1B#
10
0/
11
#900000
0!
0-
0.
#910000
1!
1-
1.
1A#
0B#
02
00
01
1/
14
12
03
11
06
05
04
13
17
16
15
07
#920000
0!
0-
0.
#930000
1!
1-
1.
1B#
10
0/
02
01
14
03
06
05
17
#940000
0!
0-
0.
#950000
1!
1-
1.
1>#
0?#
0@#
0A#
0B#
18
07
1b"
16
15
04
12
00
13
11
1/
0:
09
08
17
05
03
01
1;
1:
19
0;
#960000
0!
0-
0.
#970000
1!
1-
1.
1B#
10
0/
11
#980000
0!
0-
0.
#990000
1!
1-
1.
1A#
0B#
02
00
01
1/
12
13
11
03
#999000
0!
0-
0.
#1009000
1!
1-
1.
1B#
10
0/
02
01
13
#1019000
0!
0-
0.
#1029000
1!
1-
1.
1@#
0A#
0B#
14
12
00
03
11
1/
15
04
13
01
05
#1039000
0!
0-
0.
#1049000
1!
1-
1.
1B#
10
0/
11
#1059000
0!
0-
0.
#1069000
1!
1-
1.
1A#
0B#
02
00
01
1/
14
12
03
11
15
04
13
05
#1079000
0!
0-
0.
#1089000
1!
1-
1.
1B#
10
0/
02
01
14
03
15
#1099000
0!
0-
0.
#1109000
1!
1-
1.
1?#
0@#
0A#
0B#
0b"
06
05
04
12
00
13
11
1/
18
07
16
15
03
01
0:
09
08
17
1;
1:
19
0;
#1119000
0!
0-
0.
#1129000
1!
1-
1.
1B#
10
0/
11
#1139000
0!
0-
0.
#1149000
1!
1-
1.
1A#
0B#
02
00
01
1/
12
13
11
03
#1159000
0!
0-
0.
#1169000
1!
1-
1.
1B#
10
0/
02
01
13
#1179000
0!
0-
0.
#1189000
1!
1-
1.
1@#
0A#
0B#
14
12
00
03
11
1/
06
05
04
13
01
18
07
16
15
0:
09
08
17
1;
1:
19
0;
#1199000
0!
0-
0.
#1209000
1!
1-
1.
1B#
10
0/
11
#1219000
0!
0-
0.
#1229000
1!
1-
1.
1A#
0B#
02
00
01
1/
14
12
03
11
06
05
04
13
18
07
16
15
0:
09
08
17
1;
1:
19
0;
#1239000
0!
0-
0.
#1249000
1!
1-
1.
1B#
10
0/
02
01
14
03
06
05
18
07
0:
09
1;
#1259000
0!
0-
0.
