simulation/qsim/plottermachine.msim.vcd
$comment
	File created using the following command:
		vcd file plottermachine.msim.vcd -direction
$end
$date
	Wed Nov 27 13:12:08 2019
$end
$version
	ModelSim Version 10.5b
$end
$timescale
	1ps
$end

$scope module character_reading_vlg_vec_tst $end
$var reg 1 ! CHAR_READY $end
$var reg 1 " EOF $end
$var reg 1 # clk $end
$var reg 6 $ next_character [5:0] $end
$var reg 4 % select [3:0] $end
$var wire 1 & curr_character [5] $end
$var wire 1 ' curr_character [4] $end
$var wire 1 ( curr_character [3] $end
$var wire 1 ) curr_character [2] $end
$var wire 1 * curr_character [1] $end
$var wire 1 + curr_character [0] $end
$var wire 1 , debug_output [7] $end
$var wire 1 - debug_output [6] $end
$var wire 1 . debug_output [5] $end
$var wire 1 / debug_output [4] $end
$var wire 1 0 debug_output [3] $end
$var wire 1 1 debug_output [2] $end
$var wire 1 2 debug_output [1] $end
$var wire 1 3 debug_output [0] $end
$var wire 1 4 index [11] $end
$var wire 1 5 index [10] $end
$var wire 1 6 index [9] $end
$var wire 1 7 index [8] $end
$var wire 1 8 index [7] $end
$var wire 1 9 index [6] $end
$var wire 1 : index [5] $end
$var wire 1 ; index [4] $end
$var wire 1 < index [3] $end
$var wire 1 = index [2] $end
$var wire 1 > index [1] $end
$var wire 1 ? index [0] $end

$scope module i1 $end
$var wire 1 @ gnd $end
$var wire 1 A vcc $end
$var wire 1 B unknown $end
$var tri1 1 C devclrn $end
$var tri1 1 D devpor $end
$var tri1 1 E devoe $end
$var wire 1 F curr_character[0]~output_o $end
$var wire 1 G curr_character[1]~output_o $end
$var wire 1 H curr_character[2]~output_o $end
$var wire 1 I curr_character[3]~output_o $end
$var wire 1 J curr_character[4]~output_o $end
$var wire 1 K curr_character[5]~output_o $end
$var wire 1 L debug_output[0]~output_o $end
$var wire 1 M debug_output[1]~output_o $end
$var wire 1 N debug_output[2]~output_o $end
$var wire 1 O debug_output[3]~output_o $end
$var wire 1 P debug_output[4]~output_o $end
$var wire 1 Q debug_output[5]~output_o $end
$var wire 1 R debug_output[6]~output_o $end
$var wire 1 S debug_output[7]~output_o $end
$var wire 1 T index[0]~output_o $end
$var wire 1 U index[1]~output_o $end
$var wire 1 V index[2]~output_o $end
$var wire 1 W index[3]~output_o $end
$var wire 1 X index[4]~output_o $end
$var wire 1 Y index[5]~output_o $end
$var wire 1 Z index[6]~output_o $end
$var wire 1 [ index[7]~output_o $end
$var wire 1 \ index[8]~output_o $end
$var wire 1 ] index[9]~output_o $end
$var wire 1 ^ index[10]~output_o $end
$var wire 1 _ index[11]~output_o $end
$var wire 1 ` CHAR_READY~input_o $end
$var wire 1 a EOF~input_o $end
$var wire 1 b comb~0_combout $end
$var wire 1 c clk~input_o $end
$var wire 1 d clk~inputclkctrl_outclk $end
$var wire 1 e next_character[0]~input_o $end
$var wire 1 f select[0]~input_o $end
$var wire 1 g index[0]~33_combout $end
$var wire 1 h index[0]~reg0_q $end
$var wire 1 i comb~1_combout $end
$var wire 1 j select[1]~input_o $end
$var wire 1 k index[1]~11_combout $end
$var wire 1 l index[1]~reg0_q $end
$var wire 1 m comb~2_combout $end
$var wire 1 n index[1]~12 $end
$var wire 1 o index[2]~13_combout $end
$var wire 1 p index[2]~reg0_q $end
$var wire 1 q select[2]~input_o $end
$var wire 1 r comb~3_combout $end
$var wire 1 s index[2]~14 $end
$var wire 1 t index[3]~15_combout $end
$var wire 1 u index[3]~reg0_q $end
$var wire 1 v select[3]~input_o $end
$var wire 1 w comb~4_combout $end
$var wire 1 x index[3]~16 $end
$var wire 1 y index[4]~17_combout $end
$var wire 1 z index[4]~reg0_q $end
$var wire 1 { comb~5_combout $end
$var wire 1 | index[4]~18 $end
$var wire 1 } index[5]~19_combout $end
$var wire 1 ~ index[5]~reg0_q $end
$var wire 1 !! comb~6_combout $end
$var wire 1 "! index[5]~20 $end
$var wire 1 #! index[6]~21_combout $end
$var wire 1 $! index[6]~reg0_q $end
$var wire 1 %! comb~7_combout $end
$var wire 1 &! index[6]~22 $end
$var wire 1 '! index[7]~23_combout $end
$var wire 1 (! index[7]~reg0_q $end
$var wire 1 )! comb~8_combout $end
$var wire 1 *! index[7]~24 $end
$var wire 1 +! index[8]~25_combout $end
$var wire 1 ,! index[8]~reg0_q $end
$var wire 1 -! comb~9_combout $end
$var wire 1 .! index[8]~26 $end
$var wire 1 /! index[9]~27_combout $end
$var wire 1 0! index[9]~reg0_q $end
$var wire 1 1! comb~10_combout $end
$var wire 1 2! index[9]~28 $end
$var wire 1 3! index[10]~29_combout $end
$var wire 1 4! index[10]~reg0_q $end
$var wire 1 5! comb~11_combout $end
$var wire 1 6! index[10]~30 $end
$var wire 1 7! index[11]~31_combout $end
$var wire 1 8! index[11]~reg0_q $end
$var wire 1 9! comb~12_combout $end
$var wire 1 :! next_character[1]~input_o $end
$var wire 1 ;! next_character[2]~input_o $end
$var wire 1 <! next_character[3]~input_o $end
$var wire 1 =! next_character[4]~input_o $end
$var wire 1 >! next_character[5]~input_o $end
$var wire 1 ?! comb_88|altsyncram_component|auto_generated|q_a [31] $end
$var wire 1 @! comb_88|altsyncram_component|auto_generated|q_a [30] $end
$var wire 1 A! comb_88|altsyncram_component|auto_generated|q_a [29] $end
$var wire 1 B! comb_88|altsyncram_component|auto_generated|q_a [28] $end
$var wire 1 C! comb_88|altsyncram_component|auto_generated|q_a [27] $end
$var wire 1 D! comb_88|altsyncram_component|auto_generated|q_a [26] $end
$var wire 1 E! comb_88|altsyncram_component|auto_generated|q_a [25] $end
$var wire 1 F! comb_88|altsyncram_component|auto_generated|q_a [24] $end
$var wire 1 G! comb_88|altsyncram_component|auto_generated|q_a [23] $end
$var wire 1 H! comb_88|altsyncram_component|auto_generated|q_a [22] $end
$var wire 1 I! comb_88|altsyncram_component|auto_generated|q_a [21] $end
$var wire 1 J! comb_88|altsyncram_component|auto_generated|q_a [20] $end
$var wire 1 K! comb_88|altsyncram_component|auto_generated|q_a [19] $end
$var wire 1 L! comb_88|altsyncram_component|auto_generated|q_a [18] $end
$var wire 1 M! comb_88|altsyncram_component|auto_generated|q_a [17] $end
$var wire 1 N! comb_88|altsyncram_component|auto_generated|q_a [16] $end
$var wire 1 O! comb_88|altsyncram_component|auto_generated|q_a [15] $end
$var wire 1 P! comb_88|altsyncram_component|auto_generated|q_a [14] $end
$var wire 1 Q! comb_88|altsyncram_component|auto_generated|q_a [13] $end
$var wire 1 R! comb_88|altsyncram_component|auto_generated|q_a [12] $end
$var wire 1 S! comb_88|altsyncram_component|auto_generated|q_a [11] $end
$var wire 1 T! comb_88|altsyncram_component|auto_generated|q_a [10] $end
$var wire 1 U! comb_88|altsyncram_component|auto_generated|q_a [9] $end
$var wire 1 V! comb_88|altsyncram_component|auto_generated|q_a [8] $end
$var wire 1 W! comb_88|altsyncram_component|auto_generated|q_a [7] $end
$var wire 1 X! comb_88|altsyncram_component|auto_generated|q_a [6] $end
$var wire 1 Y! comb_88|altsyncram_component|auto_generated|q_a [5] $end
$var wire 1 Z! comb_88|altsyncram_component|auto_generated|q_a [4] $end
$var wire 1 [! comb_88|altsyncram_component|auto_generated|q_a [3] $end
$var wire 1 \! comb_88|altsyncram_component|auto_generated|q_a [2] $end
$var wire 1 ]! comb_88|altsyncram_component|auto_generated|q_a [1] $end
$var wire 1 ^! comb_88|altsyncram_component|auto_generated|q_a [0] $end
$var wire 1 _! comb_88|altsyncram_component|auto_generated|ram_block1a0_PORTADATAOUT_bus [1] $end
$var wire 1 `! comb_88|altsyncram_component|auto_generated|ram_block1a0_PORTADATAOUT_bus [0] $end
$var wire 1 a! comb_88|altsyncram_component|auto_generated|ram_block1a2_PORTADATAOUT_bus [1] $end
$var wire 1 b! comb_88|altsyncram_component|auto_generated|ram_block1a2_PORTADATAOUT_bus [0] $end
$var wire 1 c! comb_88|altsyncram_component|auto_generated|ram_block1a4_PORTADATAOUT_bus [1] $end
$var wire 1 d! comb_88|altsyncram_component|auto_generated|ram_block1a4_PORTADATAOUT_bus [0] $end
$upscope $end
$upscope $end
$enddefinitions $end
#0
$dumpvars
0!
1"
0#
b0 $
b0 %
x+
x*
x)
x(
x'
x&
x3
x2
x1
x0
x/
x.
x-
x,
x?
x>
x=
x<
x;
x:
x9
x8
x7
x6
x5
x4
0@
1A
xB
1C
1D
1E
xF
xG
xH
xI
xJ
xK
xL
xM
xN
xO
xP
xQ
xR
xS
xT
xU
xV
xW
xX
xY
xZ
x[
x\
x]
x^
x_
0`
1a
xb
0c
xd
0e
0f
1g
0h
xi
0j
xk
0l
xm
xn
xo
0p
0q
xr
xs
xt
0u
0v
xw
xx
xy
0z
x{
x|
x}
0~
x!!
x"!
x#!
0$!
x%!
x&!
x'!
0(!
x)!
x*!
x+!
0,!
x-!
x.!
x/!
00!
x1!
x2!
x3!
04!
x5!
x6!
x7!
08!
x9!
0:!
0;!
0<!
0=!
0>!
0^!
0]!
0\!
0[!
0Z!
0Y!
zX!
zW!
zV!
zU!
zT!
zS!
zR!
zQ!
zP!
zO!
zN!
zM!
zL!
zK!
zJ!
zI!
zH!
zG!
zF!
zE!
zD!
zC!
zB!
zA!
z@!
z?!
0`!
0_!
0b!
0a!
0d!
0c!
$end
#173
0d
#643
09!
#644
01!
#648
0%!
0{
#652
0)!
#670
05!
0!!
#762
0n
#767
0x
#787
02!
0*!
#790
0"!
#796
0-!
#900
1s
#923
1|
#924
16!
1.!
#970
0k
#1043
1&!
#1274
0o
#1279
0y
#1299
0+!
03!
#1302
0#!
#1412
0t
#1435
0}
#1436
0/!
07!
#1555
0'!
#2454
0b
#3520
0X
0;
#3534
0]
06
#3549
0Y
0:
#3721
0\
07
#3722
0^
05
#3761
0Z
09
#3823
0[
08
#3968
0_
04
#4769
0w
#5011
0r
#5319
0i
#5351
0m
#6176
0G
0*
#6423
0F
0+
#7322
0V
0=
#7521
0U
0>
#7718
0I
0(
#8091
1S
1,
#8258
0O
00
#8263
0L
03
#8279
0M
02
#8294
0R
0-
#8630
0Q
0.
#8725
0P
0N
01
0/
#8905
0W
0<
#9083
0T
0?
#10000
1#
#10251
0J
0'
#10700
0K
0&
#10720
1c
#10907
1d
#10951
0H
0)
#20000
0#
#20826
0c
#20999
0d
#30000
1#
#30720
1c
#30907
1d
#40000
0#
#40826
0c
#40999
0d
#50000
1#
#50720
1c
#50907
1d
#60000
0#
#60826
0c
#60999
0d
#70000
1#
#70720
1c
#70907
1d
#80000
0#
#80826
0c
#80999
0d
#90000
1#
#90720
1c
#90907
1d
#100000
0#
#100826
0c
#100999
0d
#110000
1#
#110720
1c
#110907
1d
#120000
0#
#120826
0c
#120999
0d
#130000
1#
#130720
1c
#130907
1d
#140000
0#
#140826
0c
#140999
0d
#150000
1#
#150720
1c
#150907
1d
#160000
0#
#160826
0c
#160999
0d
#170000
1#
#170720
1c
#170907
1d
#180000
0#
#180826
0c
#180999
0d
#190000
1#
#190720
1c
#190907
1d
#200000
0#
#200826
0c
#200999
0d
#210000
1#
#210720
1c
#210907
1d
#220000
0#
#220826
0c
#220999
0d
#230000
1#
#230720
1c
#230907
1d
#240000
0#
#240826
0c
#240999
0d
#250000
1#
#250720
1c
#250907
1d
#260000
0#
#260826
0c
#260999
0d
#270000
1#
#270720
1c
#270907
1d
#280000
0#
#280826
0c
#280999
0d
#290000
1#
#290720
1c
#290907
1d
#300000
0#
#300826
0c
#300999
0d
#310000
1#
#310720
1c
#310907
1d
#320000
0#
#320826
0c
#320999
0d
#330000
1#
#330720
1c
#330907
1d
#340000
0#
#340826
0c
#340999
0d
#350000
1#
#350720
1c
#350907
1d
#360000
0#
#360826
0c
#360999
0d
#370000
1#
#370720
1c
#370907
1d
#380000
0#
#380826
0c
#380999
0d
#390000
1#
#390720
1c
#390907
1d
#400000
0#
#400826
0c
#400999
0d
#410000
1#
#410720
1c
#410907
1d
#420000
0#
#420826
0c
#420999
0d
#430000
1#
#430720
1c
#430907
1d
#440000
0#
#440826
0c
#440999
0d
#450000
1#
#450720
1c
#450907
1d
#460000
0#
#460826
0c
#460999
0d
#470000
1#
#470720
1c
#470907
1d
#480000
0#
#480826
0c
#480999
0d
#490000
1#
#490720
1c
#490907
1d
#500000
0#
#500826
0c
#500999
0d
#510000
1#
#510720
1c
#510907
1d
#520000
0#
#520826
0c
#520999
0d
#530000
1#
#530720
1c
#530907
1d
#540000
0#
#540826
0c
#540999
0d
#550000
1#
#550720
1c
#550907
1d
#560000
0#
#560826
0c
#560999
0d
#570000
1#
#570720
1c
#570907
1d
#580000
0#
#580826
0c
#580999
0d
#590000
1#
#590720
1c
#590907
1d
#600000
0#
#600826
0c
#600999
0d
#610000
1#
#610720
1c
#610907
1d
#620000
0#
#620826
0c
#620999
0d
#630000
1#
#630720
1c
#630907
1d
#640000
0#
#640826
0c
#640999
0d
#650000
1#
#650720
1c
#650907
1d
#660000
0#
#660826
0c
#660999
0d
#670000
1#
#670720
1c
#670907
1d
#680000
0#
#680826
0c
#680999
0d
#690000
1#
#690720
1c
#690907
1d
#700000
0#
#700826
0c
#700999
0d
#710000
1#
#710720
1c
#710907
1d
#720000
0#
#720826
0c
#720999
0d
#730000
1#
#730720
1c
#730907
1d
#740000
0#
#740826
0c
#740999
0d
#750000
1#
#750720
1c
#750907
1d
#760000
0#
#760826
0c
#760999
0d
#770000
1#
#770720
1c
#770907
1d
#780000
0#
#780826
0c
#780999
0d
#790000
1#
#790720
1c
#790907
1d
#800000
0#
#800826
0c
#800999
0d
#810000
1#
#810720
1c
#810907
1d
#820000
0#
#820826
0c
#820999
0d
#830000
1#
#830720
1c
#830907
1d
#840000
0#
#840826
0c
#840999
0d
#850000
1#
#850720
1c
#850907
1d
#860000
0#
#860826
0c
#860999
0d
#870000
1#
#870720
1c
#870907
1d
#880000
0#
#880826
0c
#880999
0d
#890000
1#
#890720
1c
#890907
1d
#900000
0#
#900826
0c
#900999
0d
#910000
1#
#910720
1c
#910907
1d
#920000
0#
#920826
0c
#920999
0d
#930000
1#
#930720
1c
#930907
1d
#940000
0#
#940826
0c
#940999
0d
#950000
1#
#950720
1c
#950907
1d
#960000
0#
#960826
0c
#960999
0d
#970000
1#
#970720
1c
#970907
1d
#980000
0#
#980826
0c
#980999
0d
#990000
1#
#990720
1c
